…
At the moment, each team’s fixtures are stored within nested datasets under the fixtures column. Note that fixtures does not include completed games, only games that have yet to be played.

Our next step will be to clean up the nested fixtures datasets under team_fixtures:

# Display one of our 20 `fixtures` datasets
team_fixtures$fixtures[[1]] %>% as_tibble()

## # A tibble: 37 x 13
##       code team_h team_h_score team_a team_a_score event finished minutes provisional_start_ti… kickoff_time        event_name is_home difficulty
##      <int>  <int> <lgl>         <int> <lgl>        <int> <lgl>      <int> <lgl>                 <chr>               <chr>      <lgl>        <int>
##  1 1059721     20 NA               12 NA               2 FALSE          0 FALSE                 2019-08-19T19:00:0… Gameweek 2 FALSE            3
##  2 1059726     12 NA                7 NA               3 FALSE          0 FALSE                 2019-08-24T14:00:0… Gameweek 3 TRUE             3
##  3 1059740     16 NA               12 NA               4 FALSE          0 FALSE                 2019-08-31T11:30:0… Gameweek 4 FALSE            2
##  4 1059746     12 NA                9 NA               5 FALSE          0 FALSE                 2019-09-14T14:00:0… Gameweek 5 TRUE             3
##  5 1059761     19 NA               12 NA               6 FALSE          0 FALSE                 2019-09-22T13:00:0… Gameweek 6 FALSE            3
##  6 1059768     12 NA                1 NA               7 FALSE          0 FALSE                 2019-09-30T19:00:0… Gameweek 7 TRUE             4
##  7 1059777     13 NA               12 NA               8 FALSE          0 FALSE                 2019-10-06T15:30:0… Gameweek 8 FALSE            3
##  8 1059788     12 NA               10 NA               9 FALSE          0 FALSE                 2019-10-19T16:30:0… Gameweek 9 TRUE             4
##  9 1059798     14 NA               12 NA              10 FALSE          0 FALSE                 2019-10-27T16:30:0… Gameweek … FALSE            2
## 10 1059802      3 NA               12 NA              11 FALSE          0 FALSE                 2019-11-02T15:00:0… Gameweek … FALSE            3
## # … with 27 more rows
…
plot_data

## # A tibble: 722 x 19
##    gameweek team  opponent_team is_home difficulty strength strength_overal… strength_overal… strength_attack… strength_attack… strength_defenc…
##       <int> <chr> <chr>         <lgl>        <int>    <int>            <int>            <int>            <int>            <int>            <int>
##  1        2 Man … Wolves        FALSE            3        4             1310             1330             1250             1260             1310
##  2        3 Man … Crystal Pala… TRUE             3        4             1310             1330             1250             1260             1310
##  3        4 Man … Southampton   FALSE            2        4             1310             1330             1250             1260             1310
##  4        5 Man … Leicester     TRUE             3        4             1310             1330             1250             1260             1310
##  5        6 Man … West Ham      FALSE            3        4             1310             1330             1250             1260             1310
##  6        7 Man … Arsenal       TRUE             4        4             1310             1330             1250             1260             1310
##  7        8 Man … Newcastle     FALSE            3        4             1310             1330             1250             1260             1310
##  8        9 Man … Liverpool     TRUE             4        4             1310             1330             1250             1260             1310
##  9       10 Man … Norwich       FALSE            2        4             1310             1330             1250             1260             1310
## 10       11 Man … Bournemouth   FALSE            3        4             1310             1330             1250             1260             1310
## # … with 712 more rows, and 8 more variables: strength_defence_away <int>, opponent_strength <int>, opponent_strength_overall_home <int>,
## #   opponent_strength_overall_away <int>, opponent_strength_attack_home <int>, opponent_strength_attack_away <int>,
## #   opponent_strength_defence_home <int>, opponent_strength_defence_away <int>
…
