…
You may be wondering why each team has two numerical identifiers (id and code). code is a permanent id number that can be used to identify a team across different seasons. id has values from 1 to 20, and is based on the alphabetical order of team names within a season. I don’t know why they need both, our task would be simpler if the APIs data structure was built around code instead of id, but it’s nothing a bunch a code won’t fix.

The next step is to get data about individual players. The following code chunk extracts the elements table from bootstrap_static. Note that the API refers to players as elements.

# Display player data included in `bootstrap_static`
players <- bootstrap_static$elements %>%
  as_tibble()

players

## # A tibble: 529 x 53
##    chance_of_playi… chance_of_playi…   code cost_change_eve… cost_change_eve… cost_change_sta… cost_change_sta… dreamteam_count element_type
##               <int>            <int>  <int>            <int>            <int>            <int>            <int>           <int>        <int>
##  1               NA               NA  69140                0                0                0                0               0            2
##  2                0                0  98745                0                0                0                0               0            2
##  3              100               75 111457                0                0                0                0               0            2
##  4               NA               NA 154043                0                0                0                0               1            2
##  5               NA               NA  39476                0                0                0                0               0            2
##  6               NA               NA  38411                0                0                0                0               0            2
##  7                0                0  51507                0                0                0                0               0            2
##  8                0                0 233963                0                0                0                0               0            2
##  9                0                0  80254                0                0                0                0               0            2
## 10                0                0 156074                0                0                0                0               0            2
## # … with 519 more rows, and 44 more variables: ep_next <chr>, ep_this <chr>, event_points <int>, first_name <chr>, form <chr>, id <int>,
## #   in_dreamteam <lgl>, news <chr>, news_added <chr>, now_cost <int>, photo <chr>, points_per_game <chr>, second_name <chr>,
## #   selected_by_percent <chr>, special <lgl>, squad_number <lgl>, status <chr>, team <int>, team_code <int>, total_points <int>,
## #   transfers_in <int>, transfers_in_event <int>, transfers_out <int>, transfers_out_event <int>, value_form <chr>, value_season <chr>,
## #   web_name <chr>, minutes <int>, goals_scored <int>, assists <int>, clean_sheets <int>, goals_conceded <int>, own_goals <int>,
## #   penalties_saved <int>, penalties_missed <int>, yellow_cards <int>, red_cards <int>, saves <int>, bonus <int>, bps <int>, influence <chr>,
## #   creativity <chr>, threat <chr>, ict_index <chr>
…
players

## # A tibble: 529 x 8
##    name                      player_id player_code element_type status      team_code fixtures           history          
##    <chr>                         <int>       <int>        <int> <chr>           <int> <list>             <list>           
##  1 Shkodran Mustafi                  1       69140            2 Available           3 <tibble [36 × 13]> <tibble [2 × 31]>
##  2 Héctor Bellerín                   2       98745            2 Injured             3 <tibble [36 × 13]> <tibble [2 × 31]>
##  3 Sead Kolasinac                    3      111457            2 Available           3 <tibble [36 × 13]> <tibble [2 × 31]>
##  4 Ainsley Maitland-Niles            4      154043            2 Available           3 <tibble [36 × 13]> <tibble [2 × 31]>
##  5 Sokratis Papastathopoulos         5       39476            2 Available           3 <tibble [36 × 13]> <tibble [2 × 31]>
##  6 Nacho Monreal                     6       38411            2 Available           3 <tibble [36 × 13]> <tibble [2 × 31]>
##  7 Laurent Koscielny                 7       51507            2 Unavailable         3 <tibble [36 × 13]> <tibble [2 × 31]>
##  8 Konstantinos Mavropanos           8      233963            2 Injured             3 <tibble [36 × 13]> <tibble [2 × 31]>
##  9 Carl Jenkinson                    9       80254            2 Unavailable         3 <tibble [36 × 13]> <tibble [2 × 31]>
## 10 Rob Holding                      10      156074            2 Injured             3 <tibble [36 × 13]> <tibble [2 × 31]>
## # … with 519 more rows
…
## # A tibble: 2 x 31
##   element fixture opponent_team total_points was_home kickoff_time        team_h_score team_a_score round minutes goals_scored assists
##     <int>   <int>         <int>        <int> <lgl>    <dttm>                     <int>        <int> <int>   <int>        <int>   <int>
## 1       1      10            13            0 FALSE    2019-08-11 13:00:00            0            1     1       0            0       0
## 2       1      11             5            0 TRUE     2019-08-17 11:30:00            2            1     2       0            0       0
## # … with 19 more variables: clean_sheets <int>, goals_conceded <int>, own_goals <int>, penalties_saved <int>, penalties_missed <int>,
## #   yellow_cards <int>, red_cards <int>, saves <int>, bonus <int>, bps <int>, influence <dbl>, creativity <dbl>, threat <dbl>, ict_index <dbl>,
## #   value <int>, transfers_balance <int>, selected <int>, transfers_in <int>, transfers_out <int>

The fixtures column contains data on upcoming games:

# Display an example of the `fixtures` datasets
players$fixtures[[1]]

## # A tibble: 36 x 13
##       code team_h team_h_score team_a team_a_score event finished minutes provisional_start_ti… kickoff_time        event_name is_home difficulty
##      <int>  <int> <lgl>         <int> <lgl>        <int> <lgl>      <int> <lgl>                 <dttm>              <chr>      <lgl>        <int>
##  1 1059725     10 NA                1 NA               3 FALSE          0 FALSE                 2019-08-24 16:30:00 Gameweek 3 FALSE            5
##  2 1059732      1 NA               17 NA               4 FALSE          0 FALSE                 2019-09-01 15:30:00 Gameweek 4 TRUE             4
##  3 1059750     18 NA                1 NA               5 FALSE          0 FALSE                 2019-09-15 15:30:00 Gameweek 5 FALSE            3
##  4 1059752      1 NA                2 NA               6 FALSE          0 FALSE                 2019-09-22 15:30:00 Gameweek 6 TRUE             2
##  5 1059768     12 NA                1 NA               7 FALSE          0 FALSE                 2019-09-30 19:00:00 Gameweek 7 FALSE            4
##  6 1059772      1 NA                3 NA               8 FALSE          0 FALSE                 2019-10-06 15:30:00 Gameweek 8 TRUE             2
##  7 1059789     15 NA                1 NA               9 FALSE          0 FALSE                 2019-10-21 19:00:00 Gameweek 9 FALSE            2
##  8 1059792      1 NA                7 NA              10 FALSE          0 FALSE                 2019-10-27 16:30:00 Gameweek … TRUE             3
##  9 1059803      1 NA               20 NA              11 FALSE          0 FALSE                 2019-11-02 15:00:00 Gameweek … TRUE             3
## 10 1059814      9 NA                1 NA              12 FALSE          0 FALSE                 2019-11-10 15:00:00 Gameweek … FALSE            3
## # … with 26 more rows
…
Sometimes, a player’s name can change between seasons, or at least the way it’s written within the API. A player’s position can also change over time. The vaastav table created above was intentionally nested by name, element_type (position) and player_code to highlight these issues, and the importance of using player_code when combining data from different seasons. Here are some examples of why you shouldn’t attempt to merge historical FPL datasets by player names / positions:

# `player_code` values with multiple associated names / positions
duplicates <- vaastav$player_code[which(vaastav$player_code %>% duplicated)]

# Display the duplicates
vaastav %>%
  filter(player_code %in% duplicates) %>%
  arrange(player_code)

## # A tibble: 58 x 4
##    name                      element_type player_code history           
##    <chr>                            <dbl>       <dbl> <list>            
##  1 James Milner                         3       15157 <tibble [76 × 31]>
##  2 James Milner                         2       15157 <tibble [38 × 31]>
##  3 Ashley Young                         3       18892 <tibble [76 × 31]>
##  4 Ashley Young                         2       18892 <tibble [38 × 31]>
##  5 Chris Brunt                          2       19151 <tibble [38 × 31]>
##  6 Chris Brunt                          3       19151 <tibble [38 × 31]>
##  7 Bojan Krkic                          3       40276 <tibble [38 × 31]>
##  8 Bojan Krkic Perez                    3       40276 <tibble [38 × 31]>
##  9 Eduardo Dos Reis Carvalho            1       41251 <tibble [7 × 31]> 
## 10 Eduardo dos Reis Carvalho            1       41251 <tibble [38 × 31]>
## # … with 48 more rows
…
Please note that if a player’s position changed during an ongoing season, as opposed to in between seasons, we are not able to capture that with our current data (I don’t know if this actually happens). In the vaastav table, we get element_type from his players_raw.csv files; these files only describe a player’s position at the end of a season. In players, we have an opportunity to capture position changes, but I didn’t bother doing it because I’m not able to correct the problem in vaastav. As a consequence, each player’s position will be fixed within a given season, even if it actually changed in real life. For the time being, this is a potential problem that we’ll just have to live with.

We’re now left with a table, vaastav, where each row represents a player, and contains a nested dataset over his performance going back to the start of the 2016 Premier League season:

vaastav 

## # A tibble: 1,086 x 3
##    player_code name                history           
##          <dbl> <chr>               <list>            
##  1        1243 Robert Green        <tibble [33 × 32]>
##  2        1616 Alexander Manninger <tibble [38 × 32]>
##  3        1632 Gareth Barry        <tibble [76 × 32]>
##  4        1718 John Terry          <tibble [38 × 32]>
##  5        1801 Paul Robinson       <tibble [76 × 32]>
##  6        1822 Shay Given          <tibble [38 × 32]>
##  7        2404 Michael Carrick     <tibble [76 × 32]>
##  8        2513 Jamie Murphy        <tibble [38 × 32]>
##  9        3201 Stuart Taylor       <tibble [67 × 32]>
## 10        3736 John O'Shea         <tibble [38 × 32]>
## # … with 1,076 more rows
…
completed_fixtures

## # A tibble: 68,784 x 35
##    player_code name  in_current_seas… element fixture opponent_team total_points was_home kickoff_time        team_h_score team_a_score round
##          <dbl> <chr> <lgl>              <dbl>   <dbl>         <dbl>        <dbl> <lgl>    <dttm>                     <dbl>        <dbl> <dbl>
##  1        1243 Robe… FALSE                547      51             4            0 FALSE    2017-09-23 14:00:00            0            0     6
##  2        1243 Robe… FALSE                547      63            17            0 TRUE     2017-09-30 11:30:00            0            4     7
##  3        1243 Robe… FALSE                547      78            16            0 FALSE    2017-10-14 14:00:00            2            0     8
##  4        1243 Robe… FALSE                547      83            12            0 TRUE     2017-10-21 14:00:00            2            1     9
##  5        1243 Robe… FALSE                547      97            10            0 FALSE    2017-10-28 14:00:00            3            0    10
##  6        1243 Robe… FALSE                547     103            19            0 TRUE     2017-11-04 15:00:00            1            0    11
##  7        1243 Robe… FALSE                547     112             2            0 FALSE    2017-11-18 15:00:00            4            0    12
##  8        1243 Robe… FALSE                547     122            11            0 TRUE     2017-11-26 16:00:00            1            2    13
##  9        1243 Robe… FALSE                547     135             1            0 FALSE    2017-11-29 19:45:00            5            0    14
## 10        1243 Robe… FALSE                547     145             7            0 FALSE    2017-12-02 15:00:00            2            0    15
## # … with 68,774 more rows, and 23 more variables: minutes <dbl>, goals_scored <dbl>, assists <dbl>, clean_sheets <dbl>, goals_conceded <dbl>,
## #   own_goals <dbl>, penalties_saved <dbl>, penalties_missed <dbl>, yellow_cards <dbl>, red_cards <dbl>, saves <dbl>, bonus <dbl>, bps <dbl>,
## #   influence <dbl>, creativity <dbl>, threat <dbl>, ict_index <dbl>, value <dbl>, transfers_balance <dbl>, selected <dbl>, transfers_in <dbl>,
## #   transfers_out <dbl>, element_type <dbl>
…
team_names

## # A tibble: 29 x 2
##     code name          
##    <dbl> <chr>         
##  1     3 Arsenal       
##  2    91 Bournemouth   
##  3    36 Brighton      
##  4    90 Burnley       
##  5    97 Cardiff       
##  6     8 Chelsea       
##  7    31 Crystal Palace
##  8    11 Everton       
##  9    54 Fulham        
## 10    38 Huddersfield  
## # … with 19 more rows
…
team_ids

## # A tibble: 80 x 4
##    season     id  code name          
##    <chr>   <dbl> <dbl> <chr>         
##  1 2016-17     1     3 Arsenal       
##  2 2016-17     2    91 Bournemouth   
##  3 2016-17     3    90 Burnley       
##  4 2016-17     4     8 Chelsea       
##  5 2016-17     5    31 Crystal Palace
##  6 2016-17     6    11 Everton       
##  7 2016-17     7    88 Hull          
##  8 2016-17     8    13 Leicester     
##  9 2016-17     9    14 Liverpool     
## 10 2016-17    10    43 Man City      
## # … with 70 more rows
…
